…
    ## 
    ## Call:
    ## lm(formula = log10(`term frequency`) ~ log10(rank), data = rank_subset)
    ## 
    ## Coefficients:
    ## (Intercept)  log10(rank)  
    ##     -1.0909      -0.8772

``` r
    book_words <- book_words %>%
    bind_tf_idf(word, book, n)
  book_words
```

    ## # A tibble: 41,939 x 7
    ##     book word      n total     tf   idf tf_idf
    ##    <int> <chr> <int> <int>  <dbl> <dbl>  <dbl>
    ##  1    14 the     549  8234 0.0667     0      0
    ##  2    23 the     547  8223 0.0665     0      0
    ##  3    11 the     535  7757 0.0690     0      0
    ##  4     2 the     494  7779 0.0635     0      0
    ##  5    13 the     475  7420 0.0640     0      0
    ##  6    16 the     462  7778 0.0594     0      0
    ##  7     5 the     458  7956 0.0576     0      0
    ##  8    17 the     424  6738 0.0629     0      0
    ##  9    15 the     420  6773 0.0620     0      0
    ## 10    24 the     399  7621 0.0524     0      0
    ## # ... with 41,929 more rows

``` r
  book_words %>%
    select(-total) %>%
    arrange(desc(tf_idf))
```

    ## # A tibble: 41,939 x 6
    ##     book word            n      tf   idf  tf_idf
    ##    <int> <chr>       <int>   <dbl> <dbl>   <dbl>
    ##  1    10 dolon          16 0.00303 3.18  0.00961
    ##  2     3 menelaüs       12 0.00299 3.18  0.00949
    ##  3     6 bellerophon     8 0.00167 3.18  0.00530
    ##  4     3 alexander       8 0.00199 2.08  0.00414
    ##  5    13 deiphobus      14 0.00189 2.08  0.00392
    ##  6     7 idæus           9 0.00212 1.79  0.00379
    ##  7    24 litter          9 0.00118 3.18  0.00375
    ##  8     2 forty           9 0.00116 3.18  0.00368
    ##  9    16 patroclus      52 0.00669 0.539 0.00360
    ## 10     1 chrysëis        6 0.00105 3.18  0.00334
    ## # ... with 41,929 more rows
…
#### Bigrams

``` r
  libros.df_2 <- lapply(libros,FUN=function(x) data.frame(line=1:length(x),text=x))
  libros.df_2 <- lapply(libros.df_2,FUN=function(x) x %>% unnest_tokens(bigram,text,token="ngrams",n=2))
  for (i in 1:length(libros.df_2)){
    libros.df_2[[i]]$book <- i
  }
  iliad_bigrams <- bind_rows(libros.df_2)
  
  iliad_bigrams %>%
    count(bigram, sort = TRUE)
```

    ## # A tibble: 64,434 x 2
    ##    bigram       n
    ##    <chr>    <int>
    ##  1 of the     574
    ##  2 to the     459
    ##  3 on the     353
    ##  4 and the    329
    ##  5 in the     319
    ##  6 from the   305
    ##  7 of all     212
    ##  8 all the    206
    ##  9 son of     205
    ## 10 to his     205
    ## # ... with 64,424 more rows
…
``` r
  libros.df_3 <- lapply(libros,FUN=function(x) data.frame(line=1:length(x),text=x))
  libros.df_3 <- lapply(libros.df_3,FUN=function(x) x %>% unnest_tokens(trigram,text,token="ngrams",n=3))
  for (i in 1:length(libros.df_3)){
    libros.df_3[[i]]$book <- i
  }
  iliad_trigrams <- bind_rows(libros.df_3)
  iliad_trigrams %>% separate(trigram, c("word1", "word2", "word3"), sep = " ") %>%
    dplyr::filter(!word1 %in% stop_words$word,
           !word2 %in% stop_words$word,
           !word3 %in% stop_words$word) %>%
    count(word1, word2, word3, sort = TRUE)
```

    ## # A tibble: 5,727 x 4
    ##    word1   word2     word3      n
    ##    <chr>   <chr>     <chr>  <int>
    ##  1 laertes noble     son        7
    ##  2 wind    swept     ilium      7
    ##  3 blue    eyed      pallas     6
    ##  4 gore    tainted   mars       6
    ##  5 jove    ægis      arm'd      6
    ##  6 <NA>    <NA>      <NA>       6
    ##  7 close   fighting  sons       5
    ##  8 atreus  mighty    son        4
    ##  9 cloud   assembler god        4
    ## 10 cloud   assembler jove       4
    ## # ... with 5,717 more rows
…
``` r
  bigrams_filtered %>%
    dplyr::filter(word2 == "achilles") %>%
    count(word1, sort = TRUE)
```

    ## # A tibble: 94 x 2
    ##    word1         n
    ##    <chr>     <int>
    ##  1 swift        11
    ##  2 brave         7
    ##  3 godlike       5
    ##  4 renown'd      5
    ##  5 divine        4
    ##  6 myrmidons     4
    ##  7 noble         4
    ##  8 spake         3
    ##  9 thou          3
    ## 10 upsprang      3
    ## # ... with 84 more rows
…
